BusDelay_Month
…
## Rows: 180 Columns: 5
## ── Column specification ──────────────────────────────────────────────────────────────────────────────────────────────────────────────────────────────────────────
## Delimiter: ","
## chr (1): OTP_MONTH
## dbl (4): OTP_YEAR, OTP, TOTAL_TRIPS, TOTAL_LATES
## 
## ℹ Use `spec()` to retrieve the full column specification for this data.
## ℹ Specify the column types or set `show_col_types = FALSE` to quiet this message.

print(DataSet)

## # A tibble: 180 × 5
##    OTP_YEAR OTP_MONTH   OTP TOTAL_TRIPS TOTAL_LATES
##       <dbl> <chr>     <dbl>       <dbl>       <dbl>
##  1     2009 Jan        92.8       34119        2464
##  2     2009 Feb        92.8       31932        2300
##  3     2009 Mar        92.2       34065        2645
##  4     2009 Apr        92.8       35134        2524
##  5     2009 May        92.8       32451        2349
##  6     2009 Jun        94.8       34731        1810
##  7     2009 Jul        94.1       34596        2040
##  8     2009 Aug        94.4       33953        1890
##  9     2009 Sep        93         34198        2398
## 10     2009 Oct        94.6       36034        1939
## # ℹ 170 more rows
…
